0,18380908.0,18378496.0,18383250.0,18382843.0,18378448.0,18370815.0,18369248.0,18372065.0,18289458.0,18378064.0,18379071.0,18353934.0,18249669.0,18117772.0,18071136.0,18132875.0,30613897.0,22930784.0,19405535.0,21871531.0,24511180.0,18489206.0,17508141.0,19313644.0,22874149.0,24932041.0,22946381.0,23128875.0,20137468.0,17544143.0,17467200.0,19491951.0,22604601.0,24611209.0,23922080.0,22956152.0,19896462.0,17375601.0,17820096.0,19094722.0,161470.0,161430.0,161446.0,161453.0,161464.0,161443.0,161440.0,161447.0,161352.0,161472.0,161525.0,161560.0,161453.0,161326.0,161268.0,161235.0,178701.0,164272.0,162081.0,165691.0,166494.0,160722.0,160537.0,161688.0,166293.0,165513.0,165859.0,168373.0,161384.0,157281.0,160626.0,162239.0,165855.0,164687.0,167336.0,168072.0,161138.0,157353.0,160726.0,162080.0,112763013.0,109230594.0,103036317.0,104693335.0,101173227.0,89897537.0,89235821.0,94405257.0,0,0.0025,0.025625,0.024375,0.025,0.025,0.8,0.025,0.025,0.024375,0.108541666667,0.05981328125,229.5,51.0,0.00787572646787,0.00659931562653
0,14739568.0,14740202.0,14739948.0,14739225.0,14738264.0,14740763.0,14739899.0,14738283.0,14617052.0,14620759.0,14638682.0,14688624.0,14729189.0,14685526.0,14634900.0,14616884.0,18614221.0,15063615.0,14752707.0,17438076.0,29486349.0,17401325.0,14705368.0,14960600.0,14946070.0,15159976.0,15623322.0,19478902.0,21108481.0,19130364.0,15654270.0,14915893.0,14722504.0,15014522.0,16163265.0,19173969.0,20969909.0,18783653.0,16261847.0,14758036.0,144634.0,144636.0,144632.0,144625.0,144614.0,144631.0,144631.0,144623.0,144608.0,144615.0,144588.0,144564.0,144575.0,144536.0,144542.0,144582.0,145313.0,145279.0,144817.0,145200.0,165043.0,145237.0,144250.0,144768.0,145498.0,145158.0,145406.0,147692.0,148279.0,147924.0,143760.0,144769.0,145408.0,145104.0,145849.0,147381.0,147883.0,147507.0,144109.0,144548.0,77639415.0,74599074.0,75917924.0,85518796.0,101032192.0,84741631.0,75996284.0,73989696.0,1.57079632679,0.025,0.025,0.025625,0.024375,0.025,0.775,0.024375,0.025625,0.025,0.108333333333,0.0555557291667,229.5,0.0,0.0123024278964,0.00668078865895
0,15686805.0,15685631.0,15685524.0,15685488.0,15683224.0,15683235.0,15684422.0,15686075.0,15687627.0,15649664.0,15593486.0,15559915.0,15544949.0,15536300.0,15560435.0,15627344.0,28844980.0,18907128.0,15757738.0,15914021.0,19133626.0,15585832.0,15516710.0,18676468.0,22338099.0,20831531.0,16832418.0,15861456.0,15565801.0,15430932.0,15859574.0,20150582.0,22280080.0,20453873.0,17467199.0,15692590.0,15391714.0,15356802.0,16217601.0,19744626.0,149899.0,149891.0,149898.0,149906.0,149894.0,149891.0,149892.0,149895.0,149867.0,149842.0,149856.0,149865.0,149907.0,149914.0,149907.0,149870.0,169938.0,151208.0,149650.0,149845.0,152694.0,150366.0,150058.0,152300.0,157007.0,154277.0,149464.0,149614.0,150273.0,150520.0,150374.0,153896.0,156800.0,153585.0,150101.0,149338.0,150202.0,150652.0,150355.0,153440.0,104837591.0,91527827.0,81336365.0,78713470.0,81319314.0,77593101.0,78838742.0,89885095.0,0,0.00125,0.00125,0.0025,0.003125,0.00125,0.9475,0.025625,0.00125,0.001875,0.109513888889,0.0878332272377,229.5,178.5,0.0081744609201,0.00692520775623
0,18068552.0,18067667.0,18068160.0,18068634.0,18072421.0,18072120.0,18072134.0,18070695.0,17935204.0,17912560.0,17911432.0,17975681.0,18035492.0,18027212.0,17990862.0,17965698.0,24073491.0,18334719.0,17892190.0,20334462.0,32533000.0,21103685.0,18309138.0,19165866.0,18956778.0,18424521.0,18670073.0,21487871.0,23815238.0,22987635.0,20184677.0,19985432.0,18693137.0,18256543.0,19222520.0,21119847.0,23646606.0,22670829.0,20878454.0,19771262.0,159458.0,159461.0,159464.0,159460.0,159465.0,159462.0,159466.0,159461.0,159416.0,159442.0,159392.0,159423.0,159382.0,159376.0,159376.0,159398.0,164045.0,160233.0,159628.0,160850.0,179648.0,159549.0,158950.0,159946.0,160832.0,160365.0,160241.0,161923.0,163298.0,160585.0,159473.0,161080.0,160843.0,160267.0,160574.0,161515.0,162962.0,160209.0,160174.0,160778.0,97727162.0,90996010.0,91764375.0,98986495.0,116102757.0,102861481.0,95435265.0,94958953.0,1.57079632679,0.025,0.025,0.025,0.025,0.75,0.05,0.025,0.025,0.025,0.108333333333,0.0515277777778,229.5,0.0,0.0142577806746,0.0064092118842
0,26719680.0,26717156.0,26718044.0,26721396.0,26725357.0,26728009.0,26729515.0,26724522.0,26649861.0,26583857.0,26567239.0,26622300.0,26720497.0,26763592.0,26754582.0,26718363.0,30646542.0,26318367.0,26074909.0,27607015.0,35677322.0,29395017.0,27399131.0,27851441.0,27082610.0,26257869.0,25669104.0,28233262.0,31281161.0,30619967.0,29660015.0,28287481.0,26959281.0,26056100.0,25973901.0,27791368.0,31163228.0,30294513.0,30140572.0,28276123.0,202394.0,202384.0,202388.0,202398.0,202409.0,202419.0,202423.0,202406.0,202439.0,202279.0,202205.0,202254.0,202433.0,202598.0,202664.0,202603.0,207610.0,200737.0,200603.0,200837.0,214360.0,204229.0,204225.0,204363.0,202678.0,200085.0,197528.0,201534.0,206223.0,205219.0,207535.0,205273.0,202721.0,199646.0,197683.0,200860.0,205980.0,205087.0,207542.0,205737.0,138057974.0,131933349.0,131003197.0,136975341.0,151567565.0,143801098.0,140683815.0,137857930.0,1.57079632679,0.025,0.025,0.025,0.05,0.725,0.025,0.05,0.025,0.025,0.108333333333,0.0476388888889,229.5,0.0,0.0148280919016,0.00562163923741
0,13248812.0,13250957.0,13252893.0,13248947.0,13246075.0,13246349.0,13242403.0,13243969.0,13096539.0,13149997.0,13188516.0,13237279.0,13228815.0,13129725.0,13056674.0,13051094.0,17967636.0,14102154.0,13660603.0,17448051.0,27259488.0,15407952.0,12869981.0,13170931.0,13607753.0,14286641.0,15857428.0,19767723.0,19224409.0,16429305.0,13319695.0,13243750.0,13327923.0,14000557.0,16828673.0,19428539.0,18965090.0,15869771.0,13723582.0,13196979.0,135434.0,135431.0,135429.0,135411.0,135403.0,135423.0,135413.0,135419.0,135415.0,135395.0,135336.0,135337.0,135361.0,135377.0,135402.0,135432.0,140044.0,135402.0,135013.0,136719.0,154764.0,136152.0,135661.0,136219.0,136181.0,134961.0,135400.0,140527.0,140567.0,136761.0,136379.0,136874.0,136065.0,134291.0,136519.0,139887.0,139928.0,136163.0,136228.0,137225.0,71248663.0,68790306.0,72788113.0,83130539.0,91923877.0,74083102.0,66212335.0,65906723.0,1.57079632679,0.025,0.025,0.025,0.00125,0.77375,0.07375,0.00125,0.025,0.025,0.108333333333,0.0557368055556,229.5,25.5,0.0107544402803,0.00529574710771
0,19177805.0,19173976.0,19173636.0,19174786.0,19181401.0,19184326.0,19182494.0,19181368.0,19099070.0,18986077.0,18937083.0,18994579.0,19112019.0,19192519.0,19207522.0,19180130.0,26335844.0,19392946.0,18202445.0,19507067.0,27983085.0,22389575.0,20164473.0,21980186.0,21868859.0,19365770.0,17554618.0,19583958.0,22154884.0,24346636.0,23060684.0,23414961.0,21663376.0,18901654.0,18043497.0,19140275.0,21948261.0,24196043.0,23774763.0,23292721.0,164851.0,164850.0,164852.0,164852.0,164871.0,164868.0,164858.0,164856.0,164848.0,164689.0,164633.0,164715.0,164869.0,165049.0,165116.0,165022.0,171220.0,162914.0,162875.0,163233.0,175495.0,167823.0,166853.0,167512.0,166681.0,162126.0,159852.0,163074.0,167312.0,170806.0,170008.0,169897.0,166352.0,161546.0,160269.0,162569.0,166909.0,170565.0,169917.0,169935.0,108144954.0,95820423.0,91911279.0,96400665.0,110379650.0,109309099.0,105389936.0,107049366.0,1.57079632679,0.025,0.00125,0.02375,0.05,0.025,0.75,0.075,0.02375,0.00125,0.108333333333,0.05193125,229.5,102.0,0.0144750420944,0.00600184672207
0,15581925.0,15583487.0,15580177.0,15579619.0,15587964.0,15586340.0,15584993.0,15583724.0,15479259.0,15384405.0,15343623.0,15395516.0,15479476.0,15511586.0,15513551.0,15514521.0,23678324.0,16427762.0,15030035.0,17327070.0,26864369.0,18541832.0,16044437.0,18899957.0,19482937.0,15722268.0,15500767.0,18366768.0,20312742.0,19709795.0,18115307.0,20298051.0,19212153.0,15541853.0,15933934.0,17765643.0,20217387.0,19272982.0,19028868.0,19897046.0,149395.0,149415.0,149405.0,149391.0,149416.0,149392.0,149381.0,149384.0,149449.0,149395.0,149319.0,149302.0,149274.0,149288.0,149359.0,149407.0,158210.0,149918.0,149199.0,150066.0,163611.0,149400.0,149325.0,152179.0,153827.0,147826.0,149999.0,152280.0,152172.0,149325.0,148247.0,154499.0,153355.0,148197.0,150018.0,151491.0,151965.0,148610.0,148702.0,153530.0,93434598.0,78659775.0,77388536.0,84434616.0,98461938.0,88622535.0,84287156.0,90193299.0,1.57079632679,0.025,0.02375,0.00125,0.025,0.025,0.8,0.025,0.025,0.025,0.108333333333,0.0598545138889,229.5,0.0,0.0115420129271,0.00646352723915
0,13800448.0,13800258.0,13801605.0,13805804.0,13805179.0,13801854.0,13800797.0,13798922.0,13661763.0,13651308.0,13680051.0,13734382.0,13781718.0,13747751.0,13692342.0,13665715.0,18123018.0,14102731.0,13793340.0,16828990.0,30411564.0,17031084.0,13854018.0,14258493.0,14139973.0,14114029.0,14968159.0,18423869.0,20661238.0,19231529.0,15137585.0,14347472.0,13919668.0,13996067.0,15590248.0,18076342.0,20497628.0,18879526.0,15858988.0,14134479.0,140190.0,140196.0,140195.0,140208.0,140197.0,140176.0,140179.0,140178.0,140253.0,140232.0,140255.0,140184.0,140136.0,140107.0,140112.0,140157.0,141394.0,141117.0,140570.0,141970.0,165500.0,140378.0,139672.0,140225.0,141001.0,141187.0,141399.0,144873.0,143756.0,142963.0,139685.0,139712.0,140922.0,141259.0,141942.0,144536.0,143268.0,142464.0,140564.0,139373.0,73644870.0,69664393.0,71833403.0,80869387.0,99157327.0,82691744.0,72343730.0,70205081.0,1.57079632679,0.025,0.025,0.025,0.025,0.75,0.05,0.025,0.025,0.025,0.108333333333,0.0515277777778,229.5,0.0,0.0121394818315,0.0078485687904
0,9317763.0,9317987.0,9317354.0,9318211.0,9315965.0,9316416.0,9319577.0,9317097.0,9249926.0,9233232.0,9216539.0,9224982.0,9242778.0,9227047.0,9215292.0,9232647.0,16668878.0,11083972.0,9134144.0,10255192.0,18559755.0,10248239.0,9574865.0,10468686.0,12100853.0,12206032.0,10363392.0,10674715.0,12156056.0,10609216.0,10719099.0,11440487.0,11868299.0,11972018.0,10988537.0,10356149.0,12025771.0,10609172.0,10939462.0,11415845.0,118485.0,118473.0,118462.0,118471.0,118473.0,118492.0,118517.0,118493.0,118298.0,118034.0,117971.0,118102.0,118408.0,118593.0,118616.0,118545.0,123802.0,116656.0,115210.0,116328.0,131505.0,121481.0,121047.0,121680.0,119307.0,117282.0,113040.0,115241.0,122822.0,121860.0,124205.0,123867.0,119389.0,116726.0,114057.0,114387.0,122669.0,122468.0,123938.0,124419.0,59205719.0,53813241.0,49019966.0,49829249.0,61300325.0,50010090.0,49768295.0,51874762.0,1.57079632679,0.02625,0.024375,0.00125,0.823125,0.02375,0.025625,0.025,0.024375,0.001875,0.108402777778,0.0639447145062,229.5,25.5,0.00776709575797,0.00513280104285
0,11966959.0,11962726.0,11962769.0,11963026.0,11966297.0,11966717.0,11968399.0,11968259.0,11934140.0,11848403.0,11785463.0,11783157.0,11826121.0,11867203.0,11901342.0,11933919.0,26102930.0,14576485.0,11664960.0,12159642.0,20170633.0,13141700.0,12443085.0,16064302.0,18347435.0,15293182.0,12570468.0,12240507.0,12900114.0,13437623.0,14822779.0,18202801.0,18152597.0,14998745.0,13016902.0,12211312.0,12679559.0,13049526.0,15684429.0,17776353.0,128837.0,128824.0,128833.0,128834.0,128841.0,128835.0,128839.0,128833.0,128754.0,128755.0,128795.0,128825.0,128845.0,128825.0,128796.0,128733.0,150152.0,130749.0,128858.0,129148.0,136685.0,129400.0,128531.0,131042.0,136687.0,130230.0,130282.0,128343.0,129856.0,129845.0,130081.0,134853.0,136389.0,130159.0,130104.0,128934.0,129763.0,128872.0,131741.0,133927.0,86504061.0,68679541.0,61000562.0,60357644.0,69542724.0,63462769.0,66820034.0,75945634.0,0,0.006875,0.00125,0.89875,0.025625,0.021875,0.001875,0.001875,0.023125,0.00125,0.109166666667,0.0780247395833,229.5,102.0,0.00874477214709,0.00689805007876
0,8913265.0,8911292.0,8910523.0,8913658.0,8911960.0,8912185.0,8912817.0,8911776.0,8825088.0,8808910.0,8811457.0,8842155.0,8878094.0,8863672.0,8836873.0,8831959.0,13442950.0,9550197.0,8970087.0,10361367.0,19624422.0,10662939.0,8870757.0,9566989.0,10360613.0,10180223.0,9779407.0,10833282.0,13605053.0,11655756.0,9765364.0,9751148.0,10240924.0,10085665.0,10002475.0,10683955.0,13613508.0,11348207.0,10112959.0,9639331.0,117119.0,117110.0,117107.0,117122.0,117104.0,117099.0,117105.0,117104.0,116980.0,116980.0,117001.0,117031.0,117058.0,117000.0,116939.0,116961.0,120596.0,117877.0,117503.0,118765.0,135412.0,117729.0,116143.0,116725.0,118085.0,118817.0,118423.0,119404.0,123105.0,118572.0,115728.0,116566.0,118086.0,118853.0,118513.0,119367.0,123386.0,117789.0,116343.0,116193.0,51782840.0,47536287.0,46473949.0,49634417.0,64633037.0,51442759.0,46498770.0,46701203.0,1.57079632679,0.025,0.024375,0.00125,0.024375,0.825,0.025,0.024375,0.00125,0.024375,0.108333333333,0.0642921875,229.5,0.0,0.0100754983434,0.00768562272554
0,11546083.0,11546277.0,11543704.0,11545367.0,11545446.0,11545543.0,11548606.0,11549313.0,11527146.0,11456221.0,11391055.0,11382600.0,11407594.0,11432056.0,11466971.0,11513832.0,25992353.0,14095490.0,11329481.0,11724550.0,16074113.0,12133649.0,11728882.0,15197327.0,18241231.0,15329393.0,11943556.0,12156003.0,12137709.0,12350615.0,12814046.0,16746760.0,18150198.0,14976110.0,12373335.0,12049245.0,11960619.0,12161491.0,13504014.0,16352913.0,128675.0,128677.0,128676.0,128685.0,128678.0,128667.0,128674.0,128679.0,128630.0,128575.0,128553.0,128598.0,128648.0,128646.0,128657.0,128634.0,145251.0,129220.0,128269.0,128552.0,130103.0,129207.0,128784.0,130585.0,132309.0,129249.0,128088.0,128545.0,129271.0,128943.0,128738.0,131114.0,131960.0,128872.0,128191.0,128525.0,129203.0,128649.0,129408.0,130795.0,85457011.0,67403491.0,58581131.0,58857765.0,63125481.0,59623354.0,61062519.0,71360145.0,0,0.004375,0.00125,0.923125,0.02375,0.00125,0.003125,0.02125,0.001875,0.001875,0.109097222222,0.0828994020062,178.5,229.5,0.00689805007876,0.00670794633643
0,15401682.0,15405752.0,15407355.0,15403885.0,15397486.0,15394350.0,15393460.0,15397070.0,15357403.0,15377857.0,15340175.0,15297962.0,15235608.0,15171698.0,15163988.0,15242742.0,30361236.0,20019341.0,16016448.0,17281786.0,21404458.0,15459367.0,14939464.0,17676424.0,21713691.0,21892357.0,19019768.0,18476141.0,16571597.0,15540897.0,15511520.0,18446152.0,21523624.0,21554750.0,19953435.0,18234103.0,16251959.0,15525040.0,15952711.0,17814600.0,146922.0,146928.0,146935.0,146923.0,146914.0,146914.0,146910.0,146916.0,146815.0,146773.0,146795.0,146830.0,146892.0,146928.0,146888.0,146852.0,166514.0,148493.0,146328.0,148304.0,153116.0,148095.0,147224.0,148452.0,153313.0,149137.0,147800.0,150457.0,148465.0,148925.0,147822.0,148472.0,153034.0,148430.0,148717.0,149933.0,148435.0,149358.0,147781.0,147686.0,104357636.0,94250057.0,85737181.0,84693877.0,84861108.0,77091352.0,76961143.0,84576988.0,0,0.003125,0.00125,0.898125,0.025,0.02375,0.00125,0.00125,0.021875,0.001875,0.108611111111,0.0780163001543,229.5,178.5,0.00727825756341,0.00548585085004
0,15990823.0,15988662.0,15983378.0,15984191.0,15988437.0,15989608.0,15989951.0,15991829.0,15932674.0,15830346.0,15764819.0,15788207.0,15869593.0,15933321.0,15963086.0,15974103.0,27262703.0,17226386.0,15489888.0,16164074.0,21308137.0,18209264.0,16810304.0,19831626.0,20042435.0,17210006.0,16063035.0,16460382.0,17044239.0,18944638.0,20580536.0,21895837.0,19833088.0,16754775.0,16484511.0,16382359.0,16837951.0,18713905.0,21571160.0,21592546.0,150565.0,150578.0,150560.0,150561.0,150563.0,150548.0,150541.0,150555.0,150458.0,150538.0,150565.0,150591.0,150555.0,150485.0,150446.0,150417.0,163703.0,150720.0,150758.0,151536.0,151383.0,151500.0,150166.0,152156.0,153129.0,150098.0,151603.0,151934.0,151651.0,151612.0,155262.0,155375.0,152768.0,149955.0,151579.0,152229.0,151721.0,151301.0,157114.0,154940.0,99061723.0,83010175.0,79785631.0,80779213.0,87048357.0,87790736.0,90915037.0,95285941.0,0,0.00375,0.00125,0.82375,0.025,0.025,0.025625,0.024375,0.025625,0.025,0.108819444444,0.0639763406636,229.5,0.0,0.00839172233991,0.00714246917604
0,12746760.0,12751938.0,12752044.0,12751384.0,12747983.0,12744020.0,12740125.0,12744675.0,12681896.0,12710798.0,12693655.0,12672150.0,12624599.0,12552452.0,12535690.0,12595444.0,24011785.0,16497690.0,13315698.0,15114988.0,21500743.0,13149314.0,12302596.0,14763114.0,17379712.0,18347946.0,15416320.0,16644281.0,14456459.0,13977539.0,12885803.0,14756973.0,17215025.0,17918662.0,16375922.0,16471376.0,14111950.0,13960355.0,13092612.0,14607663.0,134424.0,134438.0,134438.0,134446.0,134449.0,134438.0,134421.0,134435.0,134382.0,134348.0,134329.0,134354.0,134409.0,134426.0,134428.0,134426.0,144271.0,135558.0,133922.0,135194.0,141441.0,135076.0,134618.0,135726.0,137590.0,137494.0,132612.0,137531.0,134871.0,136199.0,136731.0,133315.0,137397.0,136422.0,134256.0,137032.0,134832.0,136889.0,136154.0,133839.0,84035178.0,78227034.0,70553639.0,73654179.0,75441734.0,66383680.0,63556826.0,69467869.0,0,0.025625,0.024375,0.001875,0.02375,0.025,0.82375,0.02375,0.001875,0.024375,0.108263888889,0.0640755015432,229.5,178.5,0.00741404595079,0.00529574710771
0,18572027.0,18574591.0,18573488.0,18571975.0,18568946.0,18567706.0,18569074.0,18568668.0,18504512.0,18510556.0,18496607.0,18483701.0,18450153.0,18416355.0,18417716.0,18454702.0,30570882.0,21141810.0,19092023.0,20569318.0,25731291.0,18959217.0,18517679.0,20751104.0,22363363.0,22737919.0,22277114.0,22014216.0,19432091.0,18858997.0,19994146.0,22278981.0,22120981.0,22464007.0,22964282.0,21777464.0,19122009.0,18653593.0,20663597.0,22036677.0,163315.0,163317.0,163310.0,163311.0,163306.0,163314.0,163320.0,163310.0,163238.0,163172.0,163179.0,163241.0,163331.0,163395.0,163398.0,163320.0,175920.0,162902.0,162523.0,164598.0,170405.0,164345.0,163919.0,164926.0,164091.0,163975.0,165050.0,167580.0,164519.0,164117.0,165948.0,166513.0,163699.0,163607.0,165896.0,167158.0,164427.0,163977.0,166849.0,166331.0,112131765.0,103428883.0,101403514.0,101416674.0,101304490.0,93455868.0,96162212.0,102090132.0,0,0.00125,0.845625,0.051875,0.025,0.0025,0.0225,0.001875,0.001875,0.021875,0.108263888889,0.0682119598765,229.5,102.0,0.00752267666069,0.00581174297974
0,14548655.0,14550736.0,14548006.0,14548335.0,14549048.0,14550499.0,14551536.0,14551127.0,14534477.0,14490496.0,14435160.0,14417330.0,14423585.0,14432148.0,14454027.0,14504003.0,30977035.0,17358281.0,14538550.0,14727472.0,18663759.0,14992431.0,14698734.0,17507577.0,20397582.0,19328366.0,15770573.0,14581343.0,14525336.0,14943511.0,16462365.0,19694052.0,20042922.0,19028026.0,16416456.0,14473867.0,14344499.0,14745587.0,17315704.0,19407730.0,143841.0,143854.0,143846.0,143851.0,143850.0,143855.0,143860.0,143855.0,143813.0,143814.0,143828.0,143856.0,143867.0,143842.0,143809.0,143813.0,169951.0,145783.0,143812.0,144210.0,146057.0,144081.0,143742.0,145147.0,148778.0,149060.0,144385.0,144363.0,144534.0,143861.0,144157.0,149264.0,147772.0,148584.0,144986.0,144473.0,144455.0,143553.0,145276.0,148836.0,100500671.0,84755905.0,75708745.0,72748347.0,76506227.0,73664176.0,77482366.0,85664489.0,0,0.004375,0.00125,0.919375,0.006875,0.01875,0.001875,0.003125,0.0225,0.001875,0.108888888889,0.0821646508488,229.5,102.0,0.00763130737059,0.00665363098148
0,13544529.0,13547730.0,13547455.0,13546439.0,13541473.0,13538826.0,13537887.0,13540665.0,13440478.0,13495973.0,13501341.0,13494414.0,13435511.0,13325852.0,13270417.0,13326150.0,20605649.0,16788151.0,14256785.0,17275604.0,24979655.0,14822764.0,12874168.0,14192744.0,16227978.0,17726233.0,16507877.0,19727518.0,18249519.0,15009880.0,13331505.0,14123411.0,16006428.0,17427750.0,17412815.0,19186566.0,18079142.0,14531410.0,13675707.0,14034473.0,136703.0,136698.0,136683.0,136687.0,136687.0,136694.0,136699.0,136701.0,136760.0,136681.0,136607.0,136546.0,136521.0,136556.0,136587.0,136704.0,138361.0,139009.0,136359.0,137392.0,147741.0,136934.0,136710.0,137714.0,137296.0,139579.0,134621.0,140804.0,140153.0,136680.0,138477.0,136881.0,137106.0,138648.0,135741.0,139506.0,139798.0,136362.0,138133.0,137577.0,79825062.0,78985837.0,75226273.0,83230541.0,88285300.0,71228732.0,66689684.0,69217443.0,1.57079632679,0.025,0.025,0.025,0.025,0.775,0.025,0.025,0.025,0.025,0.108333333333,0.0555555555556,229.5,51.0,0.00687089240128,0.00613763510945
0,12398527.0,12399331.0,12399990.0,12398137.0,12400678.0,12407251.0,12405428.0,12402840.0,12273335.0,12233050.0,12235077.0,12299819.0,12375306.0,12383268.0,12347050.0,12315529.0,19158322.0,12525115.0,12098145.0,14524553.0,26932358.0,15928270.0,12858351.0,13428662.0,12979008.0,12666140.0,12954540.0,15750455.0,18540542.0,18325289.0,15070901.0,13655446.0,12782712.0,12607008.0,13465423.0,15319630.0,18340918.0,17945486.0,15768249.0,13319203.0,132637.0,132649.0,132654.0,132643.0,132640.0,132665.0,132658.0,132648.0,132645.0,132592.0,132555.0,132585.0,132618.0,132638.0,132642.0,132667.0,136718.0,132653.0,132245.0,132987.0,149774.0,134796.0,132793.0,133346.0,133544.0,132508.0,132676.0,133139.0,136080.0,138859.0,134655.0,133108.0,133484.0,132806.0,132629.0,132800.0,135672.0,138332.0,135707.0,132507.0,69591904.0,62430644.0,63153175.0,70292594.0,88589802.0,76989564.0,68449979.0,65121680.0,1.57079632679,0.025,0.025,0.02375,0.00125,0.025,0.8,0.025,0.025,0.025,0.108333333333,0.0598545138889,229.5,0.0,0.00926076801912,0.0081744609201
0,16782690.0,16779162.0,16776951.0,16778421.0,16780897.0,16783976.0,16786241.0,16783899.0,16741422.0,16684641.0,16624973.0,16619912.0,16658347.0,16680305.0,16693329.0,16723359.0,30575307.0,19438782.0,16629068.0,17136513.0,22011951.0,18202021.0,17093378.0,19646996.0,22222869.0,21224038.0,17551790.0,17150452.0,17945539.0,18952509.0,19532327.0,21081943.0,22042637.0,20952310.0,18073523.0,17017171.0,17686317.0,18691726.0,20402019.0,20798587.0,154482.0,154472.0,154469.0,154477.0,154487.0,154502.0,154507.0,154489.0,154418.0,154429.0,154445.0,154464.0,154503.0,154473.0,154423.0,154383.0,174407.0,155684.0,154546.0,155337.0,157625.0,155529.0,154210.0,154966.0,158393.0,158176.0,155100.0,155706.0,156159.0,155817.0,156627.0,156471.0,157905.0,157918.0,155007.0,155851.0,156097.0,155226.0,158219.0,156061.0,108364925.0,95078933.0,85656305.0,84702469.0,91083051.0,89310537.0,90507294.0,95034784.0,0,0.001875,0.0025,0.0025,0.00125,0.924375,0.023125,0.0025,0.0225,0.001875,0.109166666667,0.0831423611111,229.5,178.5,0.00977676389115,0.00597468904459
0,15470599.0,15473524.0,15474854.0,15475679.0,15473085.0,15468902.0,15466398.0,15467051.0,15307080.0,15340175.0,15380327.0,15427092.0,15442253.0,15369464.0,15301792.0,15284598.0,21733627.0,16412861.0,15911354.0,19458862.0,31329107.0,18536131.0,15425147.0,15727401.0,15615043.0,16373022.0,19036715.0,21573161.0,21713633.0,20134691.0,16927733.0,15744244.0,15398136.0,16126863.0,19882742.0,21320828.0,21346678.0,19931906.0,17683080.0,15618476.0,147979.0,147982.0,147982.0,147985.0,147975.0,147972.0,147964.0,147967.0,147998.0,147979.0,147969.0,147926.0,147925.0,147928.0,147954.0,147982.0,153783.0,148333.0,147806.0,150130.0,170063.0,149739.0,148039.0,148403.0,148647.0,147848.0,151241.0,153265.0,152837.0,151217.0,148551.0,148662.0,148552.0,147553.0,152336.0,153036.0,152254.0,150934.0,149258.0,148772.0,83524485.0,79726445.0,85685992.0,93255622.0,105304756.0,89441094.0,80804150.0,77841770.0,1.57079632679,0.025,0.025,0.025,0.00125,0.77375,0.07375,0.00125,0.025,0.025,0.108333333333,0.0557368055556,229.5,0.0,0.00912497963174,0.00735973059584
0,10553055.0,10555247.0,10555489.0,10554139.0,10553013.0,10554807.0,10554315.0,10554276.0,10435390.0,10408595.0,10414113.0,10469554.0,10518778.0,10496379.0,10460035.0,10446069.0,17990120.0,11102295.0,10399002.0,12778115.0,23758891.0,13149086.0,10702918.0,11633818.0,12127147.0,11248132.0,11529277.0,13823912.0,15873618.0,14976026.0,12063641.0,12360480.0,11943493.0,11217552.0,11842228.0,13432969.0,15730525.0,14421130.0,12823081.0,12007068.0,124433.0,124447.0,124449.0,124435.0,124423.0,124433.0,124433.0,124432.0,124282.0,124229.0,124249.0,124344.0,124392.0,124337.0,124297.0,124279.0,128208.0,124399.0,124074.0,127225.0,145951.0,126346.0,124120.0,124744.0,125391.0,123740.0,125755.0,129124.0,130150.0,130198.0,124681.0,125288.0,125391.0,124284.0,125780.0,128639.0,129673.0,129054.0,126501.0,124486.0,63049205.0,54531821.0,54740109.0,61058689.0,76434825.0,63597428.0,56603990.0,57001711.0,1.57079632679,0.025,0.025,0.025,0.025,0.75,0.05,0.025,0.025,0.025,0.108333333333,0.0515277777778,229.5,0.0,0.00888056053446,0.00735973059584
1,15346262.0,15351992.0,15352596.0,15350272.0,15346837.0,15346891.0,15345264.0,15344065.0,15302263.0,15274227.0,15243052.0,15245382.0,15258712.0,15265779.0,15269991.0,15288879.0,20824009.0,17072267.0,15122342.0,16244242.0,22919979.0,16150879.0,15817372.0,16717376.0,17584416.0,17653320.0,16642968.0,17433449.0,16505414.0,16730762.0,17192702.0,17746138.0,17365499.0,17455812.0,17361651.0,17207859.0,16279505.0,16765867.0,17402899.0,17847393.0,153786.0,153798.0,153798.0,153792.0,153795.0,153811.0,153808.0,153795.0,153769.0,153405.0,153266.0,153386.0,153714.0,154047.0,154155.0,154077.0,156603.0,151649.0,150032.0,150118.0,158455.0,157035.0,157314.0,157698.0,153628.0,151408.0,148468.0,149739.0,153442.0,158300.0,161258.0,159708.0,153847.0,150804.0,149609.0,149157.0,153383.0,158781.0,161055.0,160421.0,86422449.0,82807618.0,79722609.0,81481204.0,86310447.0,80260178.0,81028228.0,82943851.0,0,0.024375,0.00125,0.025625,0.024375,0.84875,0.024375,0.001875,0.02375,0.00125,0.108402777778,0.0686250964506,229.5,25.5,0.00812014556515,0.00570311226984
1,20624082.0,20624436.0,20626809.0,20623773.0,20623846.0,20620556.0,20617211.0,20618982.0,20456253.0,20509298.0,20551568.0,20589982.0,20566702.0,20462317.0,20380741.0,20379982.0,28864925.0,22883125.0,21399601.0,25234704.0,36798357.0,23322365.0,20195620.0,20763413.0,21760676.0,23784448.0,24934963.0,27222520.0,25937163.0,24512719.0,21031062.0,20951456.0,21442848.0,23412777.0,25861559.0,26816960.0,25714494.0,24042346.0,21457529.0,21015505.0,173782.0,173768.0,173765.0,173757.0,173766.0,173772.0,173769.0,173774.0,173815.0,173714.0,173688.0,173664.0,173668.0,173751.0,173807.0,173810.0,180155.0,174869.0,173307.0,174654.0,189999.0,175185.0,174030.0,174895.0,175192.0,174850.0,177217.0,177572.0,174763.0,175979.0,175118.0,175660.0,175180.0,173867.0,179045.0,177050.0,174402.0,175424.0,174829.0,176277.0,113148784.0,111214084.0,113374500.0,120487939.0,129640562.0,112960303.0,103682163.0,103729338.0,1.57079632679,0.025,0.025,0.00125,0.02375,0.75,0.1,0.02375,0.00125,0.025,0.108333333333,0.0522090277778,229.5,0.0,0.00920645266417,0.00586605833469
1,19183359.0,19183072.0,19182447.0,19182623.0,19177854.0,19177082.0,19177860.0,19179597.0,19183632.0,19132647.0,19063087.0,19027122.0,19012107.0,19008511.0,19038991.0,19117736.0,36082657.0,23216532.0,19173958.0,19298357.0,21643932.0,19088784.0,19058766.0,22675004.0,26747044.0,26050751.0,20109108.0,19107881.0,18981211.0,19029834.0,19501142.0,24145646.0,26534059.0,25601471.0,20827274.0,18911981.0,18812620.0,18995386.0,19935842.0,23732507.0,169163.0,169166.0,169169.0,169175.0,169156.0,169150.0,169148.0,169151.0,169124.0,169069.0,169089.0,169118.0,169165.0,169193.0,169193.0,169158.0,189485.0,169582.0,168696.0,168843.0,167982.0,169740.0,169542.0,171080.0,173106.0,173329.0,168168.0,167843.0,169319.0,170092.0,170108.0,173348.0,172737.0,172741.0,168896.0,167521.0,169216.0,170282.0,170178.0,172935.0,127730751.0,113184473.0,98355874.0,95527964.0,97627724.0,95299597.0,96712601.0,108850490.0,0,0.00125,0.924375,0.020625,0.003125,0.003125,0.019375,0.00125,0.00125,0.00125,0.108402777778,0.0832816936728,229.5,51.0,0.00738688827331,0.00697952311118
1,23793594.0,23791637.0,23792694.0,23795080.0,23799424.0,23797989.0,23796109.0,23796778.0,23610294.0,23599884.0,23633156.0,23726583.0,23800906.0,23742124.0,23665084.0,23623742.0,28126355.0,23776554.0,23621155.0,27875874.0,41127645.0,28201393.0,23848845.0,24062429.0,23573773.0,23864468.0,24377228.0,29268551.0,32257433.0,29777432.0,25078087.0,24152197.0,23277070.0,23740795.0,25011525.0,28744114.0,32212091.0,29203799.0,25828456.0,24025565.0,186078.0,186069.0,186070.0,186072.0,186086.0,186081.0,186079.0,186090.0,186158.0,186120.0,186084.0,186055.0,186052.0,186044.0,186096.0,186128.0,188699.0,186370.0,186083.0,188526.0,210169.0,187525.0,186167.0,186293.0,186467.0,186730.0,185936.0,190577.0,192079.0,190032.0,186573.0,185797.0,186408.0,186603.0,186075.0,189802.0,191585.0,189663.0,187096.0,185765.0,122381086.0,118773338.0,120435758.0,133410202.0,153197499.0,134722737.0,122216581.0,119660711.0,1.57079632679,0.025,0.025,0.025,0.025,0.75,0.05,0.025,0.025,0.025,0.108333333333,0.0515277777778,229.5,0.0,0.0116234859595,0.00812014556515
1,17343433.0,17342652.0,17344191.0,17347653.0,17348958.0,17345012.0,17344412.0,17341420.0,17199800.0,17209102.0,17240936.0,17301139.0,17327123.0,17275505.0,17210823.0,17192896.0,21137815.0,17597760.0,17464877.0,21407955.0,30713346.0,20509394.0,17242079.0,17474546.0,17442852.0,17412480.0,18766480.0,22750416.0,23973781.0,21670618.0,17882296.0,17434820.0,17316980.0,17319712.0,19412985.0,22505323.0,23816987.0,21370532.0,18441172.0,17271897.0,161081.0,161074.0,161077.0,161089.0,161096.0,161080.0,161086.0,161074.0,161090.0,161038.0,161006.0,160997.0,160999.0,161041.0,161057.0,161090.0,161481.0,161248.0,161015.0,164923.0,175836.0,162406.0,160911.0,161372.0,161656.0,160820.0,162074.0,166766.0,165711.0,161866.0,160246.0,161352.0,161584.0,160874.0,162895.0,166481.0,165003.0,161466.0,160710.0,161035.0,90440880.0,86881706.0,90229469.0,101312486.0,113180195.0,98171061.0,88120782.0,86715579.0,1.57079632679,0.025,0.025,0.025,0.025,0.775,0.025,0.025,0.025,0.025,0.108333333333,0.0555555555556,229.5,0.0,0.0111346477649,0.00567595459236
1,18892296.0,18894263.0,18895251.0,18891759.0,18890675.0,18888748.0,18889509.0,18890281.0,18804269.0,18822196.0,18837755.0,18877393.0,18880069.0,18836064.0,18790857.0,18781873.0,21864529.0,19245852.0,19047028.0,21168650.0,32204285.0,20421817.0,18669257.0,18785107.0,18814528.0,19174523.0,20012869.0,23150505.0,23152018.0,21315392.0,18966538.0,18714364.0,18629465.0,18989324.0,20650967.0,22758014.0,23039180.0,20888022.0,19269938.0,18686761.0,167100.0,167105.0,167105.0,167089.0,167085.0,167082.0,167087.0,167091.0,167093.0,167060.0,167011.0,167045.0,167027.0,167054.0,167067.0,167083.0,167445.0,167180.0,166936.0,167114.0,178569.0,167233.0,167081.0,167423.0,167634.0,166533.0,166621.0,169409.0,167698.0,167028.0,167318.0,167752.0,167559.0,166158.0,167097.0,169092.0,167628.0,166872.0,167278.0,167927.0,97005087.0,95126158.0,97443870.0,104846321.0,116166227.0,100350043.0,94586099.0,93858386.0,1.57079632679,0.025,0.025,0.025,0.025,0.775,0.025,0.025,0.025,0.025,0.108333333333,0.0555555555556,229.5,25.5,0.0115691706045,0.00391070555646
1,18102222.0,18098791.0,18096381.0,18098340.0,18103194.0,18109678.0,18113909.0,18107643.0,17900323.0,17843904.0,17854165.0,17939352.0,18062035.0,18044372.0,17978726.0,17928920.0,23875746.0,18685460.0,17975572.0,20057797.0,28654350.0,22092414.0,18228467.0,19653802.0,19592615.0,19196862.0,19251807.0,19279669.0,22366736.0,22730351.0,20194078.0,20224816.0,19435814.0,19349210.0,19313417.0,19334359.0,22144726.0,22108719.0,21054629.0,19870458.0,165324.0,165329.0,165323.0,165320.0,165320.0,165334.0,165349.0,165333.0,165071.0,165188.0,165305.0,165342.0,165297.0,165038.0,164878.0,164844.0,165760.0,167702.0,167112.0,167993.0,172660.0,165950.0,162519.0,163474.0,165841.0,168982.0,171289.0,166307.0,166906.0,165733.0,160334.0,162232.0,166076.0,169942.0,170587.0,167569.0,166634.0,164173.0,162083.0,161008.0,98906720.0,93174227.0,92491342.0,94709517.0,109331041.0,103085534.0,95569809.0,95785639.0,1.57079632679,0.024375,0.025,0.025625,0.025,0.775,0.025,0.025,0.025625,0.025,0.108402777778,0.0555441068673,229.5,0.0,0.0105914942154,0.00763130737059
1,25275451.0,25279543.0,25280547.0,25281605.0,25285898.0,25281429.0,25278952.0,25277663.0,25086082.0,25095588.0,25125360.0,25206412.0,25267387.0,25209430.0,25128351.0,25091418.0,29913800.0,25928066.0,25298020.0,28833482.0,40197725.0,29412924.0,25301999.0,25673128.0,25690933.0,26429259.0,26829632.0,30059483.0,32052048.0,30965309.0,26866397.0,25789580.0,25364689.0,26246173.0,27520240.0,29597927.0,31899311.0,30648597.0,27652716.0,25681433.0,191243.0,191259.0,191259.0,191253.0,191270.0,191251.0,191250.0,191251.0,191246.0,191244.0,191210.0,191214.0,191213.0,191216.0,191221.0,191242.0,193216.0,191784.0,191166.0,191876.0,211197.0,193312.0,191115.0,191718.0,192381.0,191695.0,191252.0,192545.0,193342.0,194803.0,191275.0,191888.0,192379.0,191357.0,191836.0,192247.0,192707.0,194467.0,191640.0,191901.0,131330955.0,128978629.0,130053799.0,138978909.0,154702369.0,141517689.0,130228415.0,127513222.0,1.57079632679,0.025,0.024375,0.00125,0.024375,0.025,0.825,0.024375,0.00125,0.024375,0.108333333333,0.0642921875,229.5,25.5,0.0124653739612,0.00659931562653
1,19784251.0,19786957.0,19790870.0,19790557.0,19783824.0,19776855.0,19773400.0,19774713.0,19593869.0,19665170.0,19711967.0,19754347.0,19723345.0,19605694.0,19514498.0,19518986.0,28088158.0,21908048.0,20667370.0,24750922.0,36680797.0,22309121.0,19322497.0,19901359.0,20437264.0,22699434.0,23704972.0,27374858.0,24881574.0,23526253.0,20352555.0,20295546.0,20104641.0,22245784.0,24527661.0,26918926.0,24544387.0,23070757.0,20769275.0,20346588.0,168941.0,168929.0,168936.0,168939.0,168924.0,168909.0,168904.0,168905.0,168939.0,168844.0,168785.0,168793.0,168827.0,168930.0,168960.0,168972.0,175226.0,168968.0,168258.0,169354.0,189059.0,170301.0,169437.0,170069.0,169722.0,168894.0,168964.0,172984.0,168104.0,171281.0,171389.0,170648.0,169675.0,167698.0,170327.0,172252.0,167757.0,170931.0,170893.0,171486.0,108008183.0,106305393.0,108402840.0,118589610.0,125613927.0,108288680.0,99732225.0,99837192.0,1.57079632679,0.025,0.025,0.025,0.025,0.725,0.075,0.025,0.025,0.025,0.108333333333,0.0477777777778,229.5,25.5,0.00977676389115,0.00654500027158
1,19913500.0,19916378.0,19916414.0,19915637.0,19917597.0,19918199.0,19915970.0,19913718.0,19736750.0,19726308.0,19750306.0,19824210.0,19892819.0,19860101.0,19786995.0,19757979.0,24961193.0,20347561.0,19824725.0,23247566.0,36772566.0,24339239.0,20082902.0,20459904.0,20246925.0,20680252.0,21411805.0,24562805.0,26542943.0,26688914.0,21696178.0,20611587.0,20040679.0,20616172.0,22069341.0,24056622.0,26313527.0,26320004.0,22633358.0,20336256.0,171346.0,171362.0,171358.0,171345.0,171347.0,171355.0,171350.0,171346.0,171376.0,171374.0,171350.0,171296.0,171263.0,171291.0,171301.0,171367.0,172561.0,172079.0,171427.0,171792.0,188760.0,172983.0,171140.0,171604.0,172423.0,171932.0,172623.0,173131.0,170647.0,176286.0,171064.0,171287.0,172313.0,172246.0,172971.0,172614.0,170043.0,175942.0,172428.0,170708.0,104899047.0,101286671.0,102972591.0,111606840.0,129439452.0,117126457.0,104115403.0,101079444.0,1.57079632679,0.025,0.025,0.025,0.1,0.65,0.075,0.025,0.025,0.025,0.108333333333,0.0373611111111,229.5,0.0,0.0112975938298,0.00638205420672
1,17285543.0,17287054.0,17285426.0,17284866.0,17283468.0,17284044.0,17284628.0,17285861.0,17305829.0,17231704.0,17116732.0,17059894.0,17031440.0,17034475.0,17081524.0,17206970.0,31117062.0,21699215.0,17259424.0,17512456.0,21010602.0,17177760.0,17008172.0,21361073.0,24018960.0,22747831.0,18736861.0,17587430.0,17422536.0,17293931.0,17706055.0,22190624.0,23669325.0,22397323.0,19375689.0,17514009.0,17306972.0,17177491.0,18172485.0,21910879.0,162501.0,162506.0,162504.0,162508.0,162508.0,162506.0,162504.0,162503.0,162519.0,162452.0,162330.0,162290.0,162254.0,162275.0,162304.0,162430.0,177158.0,165283.0,162154.0,162152.0,161898.0,161970.0,161988.0,164797.0,165714.0,167077.0,162621.0,161832.0,162322.0,162057.0,161563.0,165340.0,164453.0,166979.0,163387.0,161875.0,162298.0,161867.0,161787.0,165171.0,113396719.0,101363127.0,89774132.0,86958655.0,90055018.0,85967701.0,87252864.0,99955407.0,0,0.00125,0.00125,0.024375,0.00125,0.898125,0.02375,0.001875,0.02375,0.00125,0.108541666667,0.0780365451389,229.5,51.0,0.00684373472381,0.00627342349682
1,13826115.0,13829533.0,13829648.0,13831372.0,13828232.0,13827044.0,13823544.0,13825759.0,13752531.0,13749925.0,13749620.0,13761645.0,13761074.0,13735472.0,13715827.0,13725039.0,22957230.0,15462276.0,13894683.0,15928530.0,26996096.0,15006925.0,14136050.0,14891928.0,15650376.0,16385214.0,15866866.0,17510913.0,16728786.0,15571605.0,15787738.0,16051370.0,15328062.0,16040461.0,16456393.0,17004069.0,16429040.0,15666741.0,15960928.0,16103619.0,144421.0,144423.0,144414.0,144432.0,144434.0,144438.0,144430.0,144433.0,144411.0,144097.0,144010.0,144123.0,144402.0,144676.0,144747.0,144651.0,154130.0,141780.0,141081.0,142798.0,164380.0,147759.0,147572.0,147576.0,145416.0,142014.0,140368.0,145003.0,146620.0,148509.0,151816.0,149752.0,145100.0,141003.0,141521.0,143753.0,146462.0,149377.0,151346.0,150365.0,81514314.0,75467409.0,73797210.0,78036529.0,87743228.0,73807787.0,73424087.0,74597715.0,1.57079632679,0.024375,0.00125,0.025,0.02375,0.85125,0.02375,0.023125,0.001875,0.00125,0.108402777778,0.0690838638117,229.5,25.5,0.00790288414535,0.00760414969312
1,18374199.0,18372066.0,18372067.0,18370534.0,18368162.0,18371999.0,18371288.0,18373985.0,18369098.0,18279390.0,18197926.0,18175444.0,18205877.0,18248478.0,18296421.0,18359546.0,33028195.0,21259554.0,18063293.0,18259715.0,21319031.0,18977611.0,18604635.0,22873789.0,24416694.0,21325234.0,18629915.0,18671012.0,18593140.0,18956738.0,20030944.0,25521982.0,24253358.0,21130331.0,18778968.0,18713513.0,18452510.0,18658583.0,21020838.0,24959349.0,166953.0,166956.0,166961.0,166958.0,166942.0,166945.0,166936.0,166947.0,166950.0,166950.0,166940.0,166898.0,166869.0,166842.0,166859.0,166916.0,175581.0,168336.0,167227.0,167307.0,164497.0,166389.0,166313.0,167481.0,168610.0,166246.0,168895.0,168342.0,167046.0,165080.0,164292.0,168582.0,168416.0,166817.0,168498.0,168845.0,166980.0,164391.0,165298.0,167969.0,118441544.0,100366575.0,92042169.0,92190218.0,94938720.0,93213409.0,96324126.0,110088651.0,0,0.00375,0.00125,0.873125,0.05125,0.02375,0.001875,0.023125,0.00125,0.00125,0.108958333333,0.0732497395833,127.5,229.5,0.00659931562653,0.00608331975449
1,16289372.0,16291294.0,16292768.0,16289896.0,16286093.0,16287883.0,16287850.0,16289134.0,16279155.0,16256055.0,16210352.0,16182269.0,16158798.0,16129556.0,16139406.0,16205635.0,30893266.0,19367750.0,16361821.0,17014645.0,21113189.0,16444692.0,16116466.0,18570000.0,21875686.0,21740616.0,17338391.0,17470230.0,16933406.0,16605743.0,16950248.0,19684472.0,21674269.0,21052138.0,18182644.0,17157410.0,16760397.0,16686288.0,17078636.0,19307421.0,156602.0,156608.0,156618.0,156606.0,156595.0,156609.0,156608.0,156606.0,156621.0,156491.0,156426.0,156419.0,156474.0,156508.0,156546.0,156593.0,172894.0,157032.0,155421.0,155777.0,155237.0,157206.0,157284.0,158868.0,160898.0,160072.0,153139.0,155662.0,156622.0,157183.0,159686.0,159946.0,160603.0,158964.0,154586.0,154770.0,156627.0,157864.0,159150.0,159795.0,107011748.0,94707853.0,84385976.0,84114450.0,87251883.0,82154162.0,82572606.0,90056662.0,0,0.001875,0.00375,0.00125,0.923125,0.00125,0.02375,0.00125,0.02375,0.00125,0.109027777778,0.0829253568673,51.0,178.5,0.00803867253273,0.00687089240128
1,14604723.0,14606162.0,14603271.0,14602211.0,14600411.0,14600833.0,14601682.0,14604641.0,14606565.0,14573195.0,14516155.0,14487179.0,14471927.0,14458708.0,14475607.0,14541601.0,23081566.0,17448525.0,14508258.0,14690326.0,18089602.0,14640696.0,14452192.0,16591905.0,18804269.0,19424281.0,14821470.0,14490172.0,14906968.0,14791653.0,14985000.0,16694337.0,18702130.0,18688852.0,15304742.0,14344514.0,14818186.0,14803231.0,15111444.0,16383014.0,149105.0,149106.0,149093.0,149093.0,149093.0,149097.0,149100.0,149109.0,149089.0,148979.0,148893.0,148889.0,148929.0,148952.0,148973.0,149043.0,147378.0,150069.0,148156.0,148318.0,150536.0,149730.0,149384.0,150529.0,147311.0,151961.0,146360.0,147196.0,149620.0,150439.0,150808.0,149619.0,147160.0,151128.0,146874.0,146730.0,149590.0,150685.0,150608.0,149918.0,89799253.0,84741015.0,73753896.0,72614402.0,76887094.0,73295121.0,73625925.0,78815498.0,0,0.006875,0.00125,0.873125,0.02625,0.024375,0.02375,0.001875,0.02375,0.00125,0.109166666667,0.0730618055556,51.0,229.5,0.00812014556515,0.00768562272554
1,15853575.0,15852387.0,15852613.0,15853629.0,15854168.0,15855436.0,15856267.0,15854430.0,15823022.0,15745934.0,15684968.0,15681745.0,15730430.0,15760447.0,15787868.0,15825042.0,29868710.0,17889626.0,15597084.0,16021198.0,20907468.0,17068776.0,16117180.0,19324347.0,21276540.0,18635705.0,16183331.0,16230434.0,17123949.0,17729165.0,18023868.0,21936842.0,21159797.0,18279251.0,16363367.0,16254367.0,16967750.0,17400212.0,19034603.0,21312874.0,153625.0,153627.0,153633.0,153639.0,153636.0,153632.0,153629.0,153622.0,153562.0,153568.0,153552.0,153531.0,153534.0,153473.0,153452.0,153498.0,165674.0,155040.0,153962.0,154354.0,154518.0,153464.0,152728.0,154249.0,155986.0,154641.0,155525.0,154612.0,154495.0,153339.0,152030.0,157082.0,155727.0,154835.0,155179.0,155067.0,154614.0,152486.0,153775.0,156134.0,103981644.0,86402903.0,79681363.0,80041373.0,86583765.0,83814036.0,84819786.0,94253535.0,0,0.00375,0.0075,0.00125,0.87375,0.025625,0.025,0.025,0.02375,0.001875,0.109722222222,0.0730704957562,127.5,178.5,0.00822877627505,0.00735973059584
1,13750827.0,13748186.0,13748601.0,13749123.0,13749875.0,13754932.0,13757082.0,13752637.0,13536240.0,13484463.0,13494943.0,13592970.0,13713759.0,13682038.0,13602897.0,13567204.0,19185605.0,14266387.0,13548992.0,16548600.0,23096402.0,18007079.0,13753244.0,15151438.0,15341383.0,15012443.0,14495977.0,16057936.0,19083604.0,18556772.0,15639483.0,15825493.0,15197037.0,15046310.0,14677743.0,15740737.0,18867964.0,17928247.0,16418696.0,15628598.0,144533.0,144530.0,144533.0,144527.0,144513.0,144530.0,144540.0,144525.0,144176.0,144237.0,144327.0,144434.0,144487.0,144282.0,144095.0,144080.0,147001.0,145621.0,145390.0,147704.0,151532.0,146713.0,142450.0,143420.0,143991.0,146559.0,147401.0,146484.0,148220.0,147516.0,141583.0,143441.0,144033.0,146952.0,147183.0,146849.0,147606.0,146291.0,142934.0,142988.0,77011092.0,71557789.0,69966256.0,75689366.0,88511604.0,81929068.0,73171402.0,73925370.0,1.57079632679,0.025,0.024375,0.025625,0.025,0.775,0.025,0.025,0.025625,0.024375,0.108333333333,0.0555557291667,229.5,0.0,0.0116778013144,0.00665363098148
1,18719714.0,18721907.0,18723236.0,18724785.0,18723434.0,18718352.0,18716454.0,18714077.0,18531408.0,18576012.0,18631870.0,18703057.0,18707502.0,18602982.0,18517051.0,18498418.0,22755368.0,19323596.0,19151847.0,24189383.0,38233533.0,22156844.0,18454959.0,18627072.0,18634267.0,19105800.0,21135667.0,26580946.0,27509180.0,22512695.0,19412381.0,18571023.0,18489414.0,18867784.0,21859133.0,26145955.0,27152344.0,22192952.0,19900237.0,18520189.0,167656.0,167655.0,167650.0,167655.0,167654.0,167644.0,167648.0,167635.0,167674.0,167656.0,167650.0,167657.0,167620.0,167596.0,167607.0,167634.0,167878.0,167794.0,167727.0,171867.0,192597.0,169496.0,167437.0,167644.0,167643.0,167302.0,168401.0,175650.0,175062.0,168135.0,167873.0,167697.0,167566.0,166936.0,169373.0,175075.0,174222.0,167822.0,167865.0,167855.0,97130171.0,94595099.0,99501753.0,114344126.0,130325993.0,104183825.0,95001082.0,92930779.0,1.57079632679,0.025,0.025,0.025,0.025,0.00125,0.79875,0.025,0.025,0.025,0.108333333333,0.0596392361111,229.5,25.5,0.00907066427679,0.00719678453099
1,19334364.0,19333610.0,19334282.0,19335082.0,19334280.0,19332486.0,19330358.0,19333296.0,19140082.0,19157771.0,19191711.0,19270922.0,19312578.0,19244785.0,19164531.0,19139772.0,24773897.0,19891003.0,19427055.0,23526402.0,38261945.0,23401099.0,19350940.0,19784825.0,19529715.0,20112739.0,21164192.0,25032121.0,26973620.0,25258200.0,21228898.0,19944441.0,19325485.0,19902104.0,21928710.0,24497466.0,26760718.0,24785143.0,22068516.0,19766760.0,169060.0,169054.0,169046.0,169048.0,169046.0,169038.0,169034.0,169056.0,169052.0,169079.0,169055.0,169036.0,168996.0,168993.0,168997.0,169038.0,169297.0,169377.0,169019.0,169934.0,189427.0,170661.0,168940.0,169115.0,169407.0,169337.0,169344.0,171003.0,171090.0,173308.0,169268.0,168687.0,169315.0,169192.0,170130.0,170536.0,170326.0,172813.0,169782.0,168650.0,102103543.0,98397227.0,101045950.0,111661993.0,130643141.0,112021713.0,101143243.0,97969094.0,1.57079632679,0.025,0.025,0.025,0.025,0.775,0.025,0.025,0.025,0.025,0.108333333333,0.0555555555556,229.5,0.0,0.0105643365379,0.0077399380805
2,12991196.0,12989946.0,12991008.0,12990600.0,12987508.0,12987191.0,12988962.0,12989750.0,12966740.0,12978578.0,12975552.0,12958934.0,12934275.0,12912147.0,12903954.0,12923755.0,24454708.0,14483959.0,13295833.0,13790506.0,18776608.0,13082208.0,12838395.0,13500418.0,15333136.0,15537086.0,15003446.0,14361729.0,13734316.0,13083072.0,12956240.0,13765307.0,15200102.0,15334740.0,15542953.0,14269604.0,13614066.0,13034024.0,13053794.0,13627244.0,176162.0,176146.0,176150.0,176154.0,176142.0,176151.0,176168.0,176164.0,176148.0,176118.0,176140.0,176118.0,176129.0,176161.0,176144.0,176137.0,193424.0,176061.0,176077.0,176222.0,183944.0,176318.0,176163.0,176122.0,177192.0,176406.0,176172.0,176749.0,176430.0,176178.0,176184.0,176151.0,177054.0,176208.0,176517.0,176572.0,176408.0,176194.0,176164.0,176252.0,80945882.0,71324309.0,69808792.0,68371373.0,72046773.0,65098642.0,64741345.0,66806474.0,0,0.0008,0.8592,0.0196,0.0384,0.0204,0.0008,0.0008,0.0196,0.0196,0.1088,0.0705258666667,178.5,229.5,0.00840822440087,0.00818695533769
2,19208249.0,19212234.0,19210386.0,19211580.0,19208833.0,19209583.0,19208095.0,19206359.0,19062154.0,19093250.0,19111680.0,19154917.0,19157577.0,19077787.0,19007543.0,19006457.0,24662903.0,20772849.0,19477093.0,22454856.0,36367881.0,21803127.0,18776465.0,19446921.0,21061272.0,21751544.0,21345238.0,24004219.0,26517405.0,23192934.0,19042711.0,19339910.0,20766314.0,21462968.0,22242163.0,23475212.0,26386397.0,22536946.0,19562282.0,19141470.0,200599.0,200606.0,200588.0,200600.0,200595.0,200619.0,200621.0,200609.0,200556.0,200510.0,200442.0,200437.0,200445.0,200459.0,200487.0,200509.0,206533.0,202379.0,200105.0,201732.0,231373.0,203343.0,200555.0,201569.0,203530.0,204142.0,201282.0,203621.0,212007.0,205938.0,200941.0,201744.0,203318.0,203492.0,202689.0,202638.0,211603.0,204906.0,200910.0,201864.0,104760892.0,102292845.0,101386560.0,108300784.0,127638093.0,105820377.0,95597096.0,96141117.0,1.57079632679,0.02,0.02,0.02,0.04,0.78,0.02,0.04,0.02,0.02,0.108888888889,0.0563654320988,229.5,0.0,0.0141952614379,0.00413602941176
2,18652148.0,18651106.0,18653790.0,18655416.0,18657942.0,18658076.0,18655495.0,18654522.0,18518244.0,18531556.0,18563527.0,18621700.0,18644009.0,18586188.0,18525685.0,18510505.0,22070902.0,18924467.0,18769035.0,21840483.0,37857533.0,21144735.0,18537819.0,18676915.0,18379395.0,18684517.0,20177264.0,24450068.0,24252799.0,23021758.0,19231040.0,18572645.0,18101748.0,18498848.0,20942894.0,24103626.0,23869495.0,22585049.0,19811031.0,18429834.0,197046.0,197036.0,197052.0,197050.0,197066.0,197074.0,197065.0,197058.0,197042.0,196950.0,196917.0,196962.0,196999.0,197028.0,197055.0,197083.0,198342.0,196807.0,196393.0,199103.0,233601.0,199131.0,197427.0,197789.0,197879.0,196461.0,197254.0,204602.0,202865.0,202970.0,197994.0,198097.0,197816.0,196178.0,198280.0,204026.0,201735.0,202435.0,198261.0,198152.0,95722437.0,93290494.0,97106510.0,107671293.0,123281778.0,103995806.0,94761070.0,92844421.0,1.57079632679,0.02,0.02,0.02,0.02,0.82,0.02,0.02,0.02,0.02,0.108888888889,0.0632098765432,229.5,25.5,0.0141441993464,0.00423815359477
2,12655098.0,12654320.0,12653678.0,12651900.0,12653722.0,12657046.0,12656701.0,12657066.0,12627588.0,12580752.0,12556029.0,12565011.0,12592176.0,12622994.0,12637496.0,12644033.0,25365886.0,13233437.0,12476948.0,12722227.0,17576442.0,13548661.0,12990455.0,14333038.0,15363715.0,13400627.0,12647295.0,12769835.0,13173167.0,14043055.0,15032603.0,15529208.0,15213977.0,13210273.0,12790429.0,12724393.0,13046917.0,13930352.0,15684326.0,15313485.0,172928.0,172940.0,172944.0,172928.0,172926.0,172932.0,172921.0,172928.0,172908.0,172898.0,172901.0,172919.0,172890.0,172884.0,172882.0,172885.0,193574.0,172923.0,172972.0,173211.0,180078.0,172941.0,172777.0,172828.0,174841.0,173031.0,172865.0,173309.0,173451.0,173379.0,173839.0,173654.0,174659.0,173035.0,172795.0,173377.0,173457.0,173132.0,174656.0,173405.0,81226264.0,65079409.0,63124379.0,63433366.0,69042424.0,66802108.0,69001581.0,70476830.0,0,0.0008,0.0008,0.0184,0.0008,0.0196,0.9008,0.02,0.0196,0.0008,0.109066666667,0.0784322488889,229.5,102.0,0.0100762527233,0.0062806372549
2,19999263.0,19995325.0,19991245.0,19994739.0,19995937.0,20000179.0,20000277.0,20000631.0,19851046.0,19748742.0,19724253.0,19796033.0,19908654.0,19931147.0,19908600.0,19896865.0,28597565.0,20602583.0,19333452.0,22269523.0,33896202.0,23778114.0,20532356.0,23066669.0,23341162.0,20158840.0,19414249.0,23235397.0,26242614.0,25282883.0,23341549.0,24291269.0,23030411.0,19915911.0,19927921.0,22515456.0,26129248.0,24755674.0,24364889.0,24012814.0,205303.0,205297.0,205283.0,205295.0,205283.0,205285.0,205283.0,205291.0,205264.0,205216.0,205185.0,205139.0,205126.0,205097.0,205124.0,205189.0,213925.0,206561.0,205380.0,207383.0,222374.0,205690.0,204644.0,208087.0,210020.0,205404.0,206203.0,209643.0,212584.0,206337.0,204927.0,210341.0,209647.0,205641.0,206253.0,208780.0,212294.0,205438.0,205771.0,209742.0,114819447.0,100421401.0,98391120.0,107811148.0,126172655.0,113747997.0,108147671.0,111268248.0,1.57079632679,0.02,0.02,0.02,0.04,0.02,0.76,0.06,0.02,0.02,0.108888888889,0.0531654320988,229.5,0.0,0.0125272331155,0.00549768518519
2,14126457.0,14131074.0,14131403.0,14131954.0,14130503.0,14131485.0,14129447.0,14129184.0,13971115.0,14015356.0,14043845.0,14097582.0,14101107.0,14000963.0,13915122.0,13909159.0,21528618.0,15941815.0,14567111.0,18439593.0,27389828.0,17266117.0,13645882.0,14175515.0,15395922.0,17344630.0,16962479.0,19844759.0,20023344.0,18258342.0,14226526.0,14161958.0,15054445.0,16962449.0,18103672.0,19344600.0,19863728.0,17884926.0,14622600.0,14136075.0,172895.0,172906.0,172895.0,172900.0,172903.0,172925.0,172927.0,172924.0,172859.0,172796.0,172731.0,172796.0,172875.0,172901.0,172876.0,172851.0,180700.0,173909.0,172099.0,174369.0,186360.0,176065.0,173104.0,173611.0,173956.0,175892.0,173179.0,174981.0,175992.0,176974.0,174870.0,173810.0,173891.0,174739.0,175354.0,174174.0,175498.0,177120.0,174430.0,174517.0,80076557.0,78395324.0,77808510.0,85858488.0,95508510.0,81541833.0,70539577.0,70511891.0,1.57079632679,0.02,0.02,0.02,0.02,0.82,0.02,0.02,0.02,0.02,0.108888888889,0.0632098765432,229.5,178.5,0.012782543573,0.00520833333333
2,15918662.0,15920449.0,15915724.0,15915204.0,15914910.0,15913977.0,15914054.0,15919190.0,15889322.0,15871755.0,15803277.0,15759695.0,15723638.0,15705215.0,15725453.0,15808344.0,35372960.0,20533713.0,16343131.0,16760639.0,21901465.0,16117255.0,15836210.0,19375775.0,22428807.0,23716675.0,19073613.0,16821187.0,15734730.0,15910112.0,17553573.0,21752991.0,21977817.0,23337722.0,20029740.0,16554206.0,15474907.0,15773773.0,18412502.0,21361837.0,184244.0,184247.0,184226.0,184230.0,184242.0,184241.0,184240.0,184254.0,184190.0,184181.0,184163.0,184195.0,184214.0,184243.0,184193.0,184200.0,219976.0,189009.0,183965.0,184615.0,187503.0,184599.0,184280.0,187615.0,191593.0,195011.0,187963.0,184599.0,184636.0,184176.0,186239.0,192471.0,190315.0,194388.0,189720.0,184100.0,184579.0,184295.0,187330.0,192053.0,111587568.0,99380314.0,87165485.0,81810931.0,84749650.0,79420332.0,83441792.0,94218137.0,0,0.0008,0.9372,0.0008,0.0024,0.0008,0.0172,0.0012,0.0192,0.0008,0.108933333333,0.0858022044444,229.5,178.5,0.00765931372549,0.00590618191721
2,20403667.0,20403438.0,20401472.0,20402954.0,20404073.0,20400375.0,20402628.0,20402940.0,20378042.0,20309404.0,20242143.0,20227611.0,20242767.0,20277876.0,20312240.0,20363882.0,40894321.0,22965791.0,20226092.0,20645749.0,25472974.0,21131246.0,20744889.0,24135347.0,26481908.0,24785722.0,21300414.0,20761239.0,20533372.0,21061629.0,23224577.0,27145598.0,26118865.0,24283421.0,22035984.0,20574016.0,20217831.0,20859655.0,24210178.0,26818976.0,207641.0,207644.0,207638.0,207644.0,207651.0,207631.0,207634.0,207632.0,207554.0,207586.0,207599.0,207611.0,207579.0,207590.0,207562.0,207550.0,246161.0,209191.0,207576.0,208157.0,209936.0,207860.0,207361.0,210603.0,211730.0,212648.0,208668.0,208317.0,208718.0,207787.0,210819.0,217032.0,210749.0,211891.0,209474.0,208308.0,208685.0,207495.0,212540.0,216650.0,134276803.0,112747776.0,104206105.0,102611569.0,106871017.0,103730781.0,108894512.0,118866743.0,0,0.0036,0.0008,0.9388,0.0016,0.0176,0.0008,0.0012,0.0188,0.0008,0.109333333333,0.08604928,102.0,229.5,0.00823801742919,0.00816993464052
2,11955653.0,11955543.0,11954495.0,11954544.0,11952125.0,11951267.0,11954095.0,11955462.0,11970072.0,11895517.0,11797770.0,11753351.0,11745753.0,11758412.0,11812519.0,11901682.0,25420817.0,16430422.0,11770853.0,11836725.0,15475400.0,11818395.0,11861369.0,16916987.0,19691676.0,17340743.0,12455995.0,11803685.0,11652610.0,11679006.0,12394866.0,18835638.0,19542902.0,17002374.0,12956886.0,11714080.0,11513716.0,11571867.0,12956868.0,18449380.0,162745.0,162751.0,162755.0,162766.0,162753.0,162741.0,162755.0,162750.0,162736.0,162711.0,162674.0,162665.0,162657.0,162632.0,162669.0,162660.0,182239.0,166712.0,162531.0,162397.0,164022.0,162261.0,162405.0,167925.0,170764.0,167535.0,162941.0,162335.0,162360.0,161726.0,162116.0,171484.0,169776.0,167552.0,163534.0,162340.0,162306.0,161641.0,162788.0,170972.0,88581120.0,74624599.0,60935999.0,59062385.0,62339604.0,58778947.0,60979717.0,78059149.0,0,0.0008,0.0008,0.0008,0.936,0.0016,0.02,0.0012,0.0188,0.0012,0.109022222222,0.0855426883951,229.5,102.0,0.00876565904139,0.00573597494553
2,18641902.0,18640505.0,18642167.0,18640486.0,18639848.0,18641456.0,18641594.0,18640619.0,18591502.0,18542428.0,18491805.0,18480193.0,18492691.0,18497280.0,18522388.0,18571291.0,35266864.0,21404947.0,18716015.0,19464211.0,25036266.0,19579391.0,18970709.0,21945600.0,23456527.0,23483735.0,20795539.0,19879444.0,19032119.0,19481451.0,22081480.0,24252234.0,23078669.0,23145517.0,21621363.0,19605133.0,18699776.0,19240995.0,23056000.0,23938087.0,198730.0,198727.0,198739.0,198736.0,198730.0,198734.0,198726.0,198717.0,198626.0,198630.0,198651.0,198689.0,198743.0,198692.0,198676.0,198663.0,223750.0,199329.0,198533.0,199589.0,202838.0,199377.0,198693.0,200302.0,199801.0,202375.0,201171.0,200046.0,199899.0,199211.0,203146.0,204256.0,199131.0,201961.0,202283.0,199705.0,199832.0,199083.0,204632.0,203909.0,119035464.0,105217132.0,98266889.0,96069467.0,99900700.0,95440573.0,101272171.0,107347831.0,0,0.0028,0.0008,0.918,0.0204,0.002,0.0184,0.0008,0.0192,0.0008,0.109244444444,0.0818279980247,102.0,229.5,0.00825503812636,0.00811887254902
2,20814415.0,20817460.0,20816618.0,20815699.0,20816692.0,20811067.0,20811464.0,20812425.0,20773956.0,20778704.0,20741523.0,20703357.0,20664984.0,20624813.0,20631753.0,20698407.0,40844169.0,24378124.0,21351198.0,22170116.0,26932710.0,20941749.0,20581400.0,23390817.0,26703236.0,26501691.0,24799792.0,22553433.0,21028562.0,20876038.0,21572409.0,25424796.0,26323492.0,26108371.0,25768832.0,22298547.0,20670263.0,20687558.0,22273920.0,24932591.0,209705.0,209720.0,209714.0,209721.0,209732.0,209713.0,209714.0,209711.0,209632.0,209650.0,209661.0,209661.0,209706.0,209705.0,209689.0,209665.0,246395.0,211636.0,209448.0,210638.0,214648.0,210249.0,209736.0,212065.0,215088.0,215429.0,215624.0,210697.0,210706.0,210500.0,210803.0,215972.0,214064.0,214739.0,217352.0,210243.0,210599.0,210532.0,211554.0,215295.0,135459268.0,118584350.0,113477963.0,108541152.0,110113211.0,103941225.0,105870946.0,115259036.0,0,0.0036,0.0008,0.9176,0.0016,0.0192,0.0012,0.0192,0.02,0.0008,0.109333333333,0.0817290311111,51.0,102.0,0.00738698257081,0.00738698257081
2,10596166.0,10598134.0,10597711.0,10596923.0,10597834.0,10599362.0,10600043.0,10599256.0,10532667.0,10529445.0,10537691.0,10565892.0,10590236.0,10583065.0,10557442.0,10543098.0,12682184.0,10630378.0,10538571.0,11871817.0,25082277.0,12113968.0,10721745.0,10820024.0,10644853.0,10618939.0,11066138.0,12745875.0,14735487.0,13196349.0,11627215.0,10838322.0,10580927.0,10586453.0,11303214.0,12500698.0,14554106.0,12964381.0,11984577.0,10788083.0,158168.0,158184.0,158181.0,158169.0,158168.0,158180.0,158187.0,158188.0,158139.0,158099.0,158083.0,158120.0,158160.0,158213.0,158190.0,158180.0,158986.0,157484.0,157477.0,158249.0,176303.0,159304.0,158681.0,158698.0,158303.0,156975.0,157094.0,157829.0,160921.0,160149.0,159517.0,159052.0,158259.0,156985.0,157078.0,157756.0,160630.0,159867.0,160243.0,159013.0,55036797.0,52963349.0,54043325.0,58281205.0,75559940.0,59457125.0,55491022.0,53588783.0,1.57079632679,0.02,0.0204,0.0196,0.02,0.78,0.06,0.02,0.0196,0.0204,0.108888888889,0.0564543920988,229.5,0.0,0.00905501089325,0.00854438997821
2,8705233.0,8704578.0,8704093.0,8705770.0,8705310.0,8706523.0,8706734.0,8707239.0,8689371.0,8707464.0,8715064.0,8707497.0,8680001.0,8655336.0,8642482.0,8658216.0,12391874.0,9335516.0,8973209.0,9288391.0,12262727.0,8847758.0,8490502.0,8903594.0,9666337.0,9736694.0,9577951.0,9681796.0,9562648.0,8931201.0,8760542.0,9030616.0,9528512.0,9715804.0,9717462.0,9661144.0,9435235.0,8874362.0,8920952.0,8963822.0,145967.0,145966.0,145965.0,145976.0,145966.0,145977.0,145980.0,145981.0,145989.0,146196.0,146296.0,146201.0,145919.0,145732.0,145654.0,145752.0,148542.0,148272.0,148079.0,148027.0,148197.0,143608.0,143856.0,143872.0,146275.0,149344.0,149977.0,149360.0,145604.0,142509.0,142312.0,143024.0,146234.0,149556.0,149968.0,149528.0,145565.0,142354.0,142660.0,142796.0,48981327.0,46200056.0,45687779.0,46044598.0,48645921.0,44015180.0,43521212.0,44263487.0,0,0.0188,0.0008,0.0208,0.0188,0.8816,0.0188,0.0012,0.0196,0.0008,0.109022222222,0.0746806439506,229.5,102.0,0.0111996187364,0.00558278867102
2,12367025.0,12368830.0,12368649.0,12365957.0,12362108.0,12363854.0,12364573.0,12362968.0,12330453.0,12327702.0,12288012.0,12260738.0,12223537.0,12175476.0,12178474.0,12249609.0,25908976.0,16043933.0,12677971.0,13937153.0,19492886.0,12585753.0,11995480.0,15019260.0,18898205.0,17639224.0,14597484.0,15109740.0,13765662.0,12777318.0,12746513.0,16059989.0,18822915.0,17079384.0,15651240.0,14716057.0,13482072.0,12758853.0,13063066.0,15454756.0,164759.0,164768.0,164771.0,164761.0,164746.0,164764.0,164769.0,164750.0,164727.0,164668.0,164604.0,164630.0,164693.0,164738.0,164750.0,164767.0,182674.0,166159.0,163887.0,165427.0,170210.0,165601.0,165102.0,167760.0,171381.0,166960.0,165138.0,166792.0,165742.0,165974.0,166757.0,169043.0,171125.0,166284.0,167492.0,165677.0,165704.0,166583.0,166464.0,168532.0,88327574.0,75459073.0,67583356.0,68389645.0,71326265.0,62661254.0,62348106.0,71146582.0,0,0.0008,0.8788,0.02,0.02,0.0008,0.0192,0.02,0.02,0.0008,0.108933333333,0.0741624177778,229.5,102.0,0.00743804466231,0.0061785130719
2,18432954.0,18428607.0,18429162.0,18430599.0,18433954.0,18438837.0,18438899.0,18437187.0,18308441.0,18150526.0,18080245.0,18152707.0,18305962.0,18386079.0,18392363.0,18389656.0,31612414.0,19642804.0,17249119.0,20003974.0,32566769.0,22881222.0,19413694.0,23542666.0,24501128.0,19079277.0,17092765.0,20722287.0,24792419.0,25565008.0,22050839.0,27034130.0,24118196.0,18615552.0,17552702.0,19969073.0,24534142.0,24916426.0,23314427.0,26546405.0,196550.0,196545.0,196556.0,196553.0,196554.0,196563.0,196555.0,196553.0,196529.0,196336.0,196277.0,196335.0,196516.0,196687.0,196729.0,196696.0,217896.0,195624.0,194759.0,197184.0,219605.0,201396.0,198090.0,203602.0,205478.0,192925.0,194769.0,197497.0,207063.0,205162.0,199761.0,210274.0,204582.0,193118.0,194494.0,196543.0,206558.0,203834.0,201605.0,209145.0,116973133.0,93916766.0,88403993.0,97278640.0,118633246.0,110187572.0,101610222.0,113950044.0,1.57079632679,0.02,0.02,0.02,0.02,0.84,0.02,0.02,0.02,0.0008,0.108977777778,0.0668350261728,229.5,127.5,0.00973583877996,0.00663807189542
2,20063129.0,20057222.0,20057077.0,20060005.0,20066271.0,20069362.0,20070096.0,20066927.0,19945962.0,19784105.0,19717154.0,19792154.0,19936318.0,20014719.0,20023370.0,20021472.0,30724476.0,21079134.0,18932182.0,21781492.0,32063100.0,23922986.0,21007252.0,25321786.0,25600282.0,19875555.0,18602629.0,23041426.0,25205159.0,25229380.0,23793693.0,27769764.0,25258471.0,19426120.0,19191854.0,22254636.0,25011159.0,24850871.0,24868320.0,27454003.0,205231.0,205218.0,205225.0,205235.0,205247.0,205252.0,205248.0,205239.0,205284.0,205055.0,204968.0,205028.0,205190.0,205429.0,205488.0,205438.0,219456.0,204072.0,203340.0,205926.0,221858.0,208222.0,206990.0,212088.0,213290.0,200215.0,202377.0,209006.0,210963.0,209182.0,209137.0,216892.0,212737.0,200162.0,202530.0,207700.0,210563.0,208639.0,210158.0,216283.0,121592320.0,100222136.0,96500896.0,106929713.0,122282007.0,114087318.0,109762731.0,120633952.0,1.57079632679,0.02,0.02,0.02,0.02,0.84,0.02,0.02,0.02,0.0008,0.108977777778,0.0668350261728,229.5,0.0,0.00931032135076,0.00621255446623
2,17342915.0,17344778.0,17347078.0,17346475.0,17346284.0,17347811.0,17346738.0,17345419.0,17185817.0,17191238.0,17225078.0,17295147.0,17342165.0,17288033.0,17211092.0,17181859.0,22340109.0,17925118.0,17394397.0,20883266.0,33007726.0,20985645.0,17276491.0,17508580.0,17638046.0,18200871.0,19052294.0,22788657.0,25087612.0,23224672.0,17926310.0,17406852.0,17304999.0,17945036.0,19897909.0,22404379.0,24735078.0,22836957.0,18533183.0,17250671.0,191177.0,191174.0,191178.0,191171.0,191176.0,191189.0,191188.0,191193.0,191171.0,191080.0,191066.0,191111.0,191173.0,191223.0,191220.0,191211.0,192191.0,190936.0,190407.0,190742.0,207348.0,194613.0,191771.0,192096.0,191904.0,191081.0,189990.0,191375.0,199422.0,198158.0,192552.0,192166.0,191789.0,190606.0,190861.0,190719.0,199086.0,197717.0,192683.0,192307.0,91811886.0,88607041.0,90916756.0,100717924.0,117518865.0,101683118.0,88293814.0,86693381.0,1.57079632679,0.02,0.0008,0.0192,0.0196,0.8404,0.0404,0.0196,0.0192,0.0008,0.108888888889,0.0670111209877,229.5,0.0,0.0101613562092,0.00638276143791
3,10501364.0,10502043.0,10501089.0,10502456.0,10503987.0,10504004.0,10504373.0,10503705.0,10436821.0,10416224.0,10424373.0,10454600.0,10499253.0,10493821.0,10472563.0,10457261.0,15296051.0,10508410.0,10220230.0,11156688.0,16128351.0,11618015.0,10687643.0,11010287.0,11150281.0,10732634.0,9982309.0,11427573.0,13362244.0,11691282.0,11494927.0,11241606.0,11076084.0,10557232.0,10185166.0,11138432.0,13351579.0,11637667.0,11619424.0,11243009.0,126726.0,126731.0,126725.0,126732.0,126739.0,126736.0,126739.0,126737.0,126531.0,126498.0,126579.0,126666.0,126793.0,126761.0,126677.0,126605.0,128717.0,125342.0,125780.0,127202.0,130283.0,128301.0,127347.0,126775.0,125469.0,125338.0,123415.0,127597.0,129488.0,127724.0,129617.0,126678.0,125430.0,124826.0,123994.0,126796.0,129493.0,128255.0,129132.0,127223.0,58460601.0,52716543.0,51313167.0,54679749.0,63845414.0,55944789.0,54778930.0,54455868.0,1.57079632679,0.024375,0.00125,0.799375,0.025,0.025,0.025,0.025,0.025625,0.025,0.108402777778,0.0597352527006,229.5,0.0,0.0108087556352,0.00491553962305
3,20828482.0,20830088.0,20831278.0,20831153.0,20829134.0,20827286.0,20827206.0,20827485.0,20799459.0,20850655.0,20854115.0,20835134.0,20784489.0,20722734.0,20700991.0,20734140.0,31064598.0,22705047.0,21479171.0,22165147.0,28013842.0,20924275.0,20321950.0,21163528.0,23049007.0,24038301.0,23447021.0,22632138.0,21877172.0,21286932.0,20359742.0,21422401.0,22840982.0,23870628.0,24038824.0,22547136.0,21721938.0,21134359.0,20650635.0,21196883.0,177310.0,177316.0,177318.0,177319.0,177314.0,177314.0,177316.0,177313.0,177327.0,177507.0,177553.0,177500.0,177357.0,177234.0,177193.0,177228.0,194680.0,178669.0,178935.0,178689.0,185404.0,175725.0,176018.0,175512.0,177107.0,180511.0,180885.0,178904.0,176738.0,175372.0,174436.0,175001.0,176742.0,180422.0,181408.0,179036.0,176660.0,175333.0,174335.0,174895.0,118582528.0,112294719.0,110650409.0,109010708.0,113226575.0,104895586.0,102860524.0,105344437.0,0,0.00125,0.00125,0.02375,0.025,0.025,0.825,0.025,0.025,0.025,0.108472222222,0.0642690200617,229.5,178.5,0.0122752702189,0.00779425343545
3,17082008.0,17081165.0,17080143.0,17081080.0,17081039.0,17082188.0,17083873.0,17081930.0,17038205.0,17027711.0,17023296.0,17041676.0,17067306.0,17057857.0,17045747.0,17041902.0,22792683.0,17349948.0,17046488.0,17874966.0,26903993.0,18184124.0,17097809.0,17616794.0,18254219.0,17331548.0,17501686.0,18362364.0,19242460.0,19014774.0,17644623.0,17928515.0,18129295.0,17318366.0,17654181.0,18189537.0,19102440.0,18881770.0,18027091.0,17663228.0,160542.0,160539.0,160537.0,160540.0,160535.0,160538.0,160543.0,160536.0,160531.0,160631.0,160642.0,160608.0,160538.0,160417.0,160397.0,160432.0,166755.0,161652.0,161560.0,161676.0,174173.0,159674.0,159405.0,159486.0,161149.0,162314.0,163148.0,161628.0,161526.0,159778.0,157837.0,158911.0,160995.0,162706.0,162979.0,161695.0,161388.0,159626.0,158141.0,158404.0,93296410.0,86108738.0,86305794.0,88549623.0,99397238.0,90220713.0,86899143.0,87332369.0,1.57079632679,0.001875,0.023125,0.025,0.025,0.025,0.8,0.025,0.025,0.025,0.108333333333,0.0598514756944,229.5,102.0,0.0157514529357,0.0063005811743
3,15097979.0,15099270.0,15099082.0,15099040.0,15099312.0,15097953.0,15097810.0,15098086.0,15062423.0,15072338.0,15059764.0,15050185.0,15033485.0,14997510.0,14981984.0,15014317.0,26106962.0,17039425.0,15277028.0,16138959.0,21624448.0,15401925.0,14855477.0,15905727.0,18361384.0,18788101.0,16080428.0,16773565.0,16888619.0,15448329.0,15249476.0,16098003.0,18163653.0,18505843.0,16696699.0,16385908.0,16725114.0,15423279.0,15367096.0,15907209.0,148179.0,148180.0,148176.0,148184.0,148192.0,148191.0,148192.0,148190.0,148103.0,147998.0,147980.0,148035.0,148171.0,148248.0,148238.0,148199.0,163616.0,147819.0,146922.0,147721.0,156526.0,149559.0,149193.0,149311.0,151506.0,149835.0,144746.0,147839.0,150243.0,150001.0,151466.0,149289.0,151125.0,149043.0,145623.0,146736.0,150038.0,150637.0,151010.0,149555.0,92792401.0,84504977.0,78213001.0,79447657.0,85370978.0,76368996.0,75551843.0,78023342.0,0,0.003125,0.025625,0.025,0.025,0.84875,0.025,0.02375,0.00125,0.00125,0.10875,0.0685606770833,178.5,229.5,0.00977676389115,0.00831024930748
3,20387684.0,20385949.0,20385853.0,20385825.0,20386841.0,20386987.0,20385093.0,20387824.0,20378239.0,20364312.0,20340229.0,20334547.0,20339467.0,20339664.0,20348672.0,20363578.0,28549188.0,21227145.0,20410421.0,20608345.0,24162130.0,20581826.0,20300712.0,21510408.0,22866370.0,21572807.0,20911619.0,20666639.0,20690751.0,20678894.0,20351674.0,22422887.0,22761091.0,21502238.0,20987103.0,20692123.0,20563510.0,20473915.0,20781777.0,22062162.0,174586.0,174581.0,174579.0,174579.0,174581.0,174579.0,174567.0,174582.0,174583.0,174654.0,174663.0,174631.0,174581.0,174524.0,174522.0,174520.0,185594.0,175201.0,175395.0,175353.0,176300.0,173858.0,173826.0,173970.0,175898.0,174813.0,177397.0,175577.0,174583.0,173612.0,171812.0,175183.0,175695.0,175282.0,176901.0,176145.0,174606.0,173079.0,172291.0,174422.0,114942572.0,105052451.0,103035225.0,102687479.0,106142699.0,102461286.0,102167928.0,106746859.0,0,0.001875,0.001875,0.023125,0.02375,0.02625,0.85,0.02625,0.021875,0.001875,0.108541666667,0.0688260416667,102.0,229.5,0.00893487588941,0.00852751072728
3,19459660.0,19461981.0,19460086.0,19460780.0,19461894.0,19460832.0,19461382.0,19462238.0,19429131.0,19401541.0,19380354.0,19390480.0,19410968.0,19416851.0,19413985.0,19431353.0,27967258.0,20168893.0,19368545.0,19995115.0,27714395.0,20235596.0,19538089.0,20742426.0,21634869.0,20626008.0,19962315.0,20222868.0,20753741.0,20874874.0,20149421.0,21669132.0,21549188.0,20540020.0,20188688.0,20086116.0,20562919.0,20653305.0,20664497.0,21327254.0,169676.0,169699.0,169692.0,169694.0,169688.0,169678.0,169680.0,169686.0,169657.0,169711.0,169714.0,169722.0,169682.0,169635.0,169575.0,169615.0,178828.0,170125.0,170227.0,170115.0,176455.0,169220.0,169125.0,169204.0,169489.0,170416.0,171727.0,169488.0,169795.0,169578.0,167685.0,170460.0,169462.0,170818.0,171426.0,169732.0,169797.0,169457.0,167995.0,169838.0,110040106.0,100198443.0,98359988.0,99155359.0,107903917.0,100641458.0,99227374.0,102632403.0,0,0.00125,0.001875,0.001875,0.00125,0.021875,0.025,0.875625,0.024375,0.025,0.108680555556,0.073638753858,229.5,102.0,0.0117049589919,0.00836456466243
3,16217798.0,16217339.0,16214547.0,16215266.0,16218243.0,16216332.0,16216256.0,16216854.0,16182363.0,16135372.0,16103466.0,16110666.0,16155483.0,16175322.0,16193807.0,16202828.0,27834076.0,17013087.0,16012899.0,16465994.0,22432267.0,17352940.0,16541001.0,18199381.0,18807364.0,17543446.0,16567333.0,16415169.0,17458952.0,18062698.0,18215022.0,19888514.0,18564340.0,17382993.0,16743821.0,16372309.0,17279611.0,17722087.0,19018935.0,19621718.0,154408.0,154411.0,154401.0,154404.0,154413.0,154392.0,154386.0,154392.0,154349.0,154450.0,154490.0,154456.0,154405.0,154258.0,154233.0,154256.0,169252.0,155595.0,155363.0,155470.0,162335.0,153894.0,153277.0,153683.0,156418.0,156290.0,157223.0,155225.0,155098.0,154458.0,153630.0,154152.0,156038.0,156613.0,156801.0,155745.0,154967.0,153575.0,155097.0,153596.0,97605941.0,84292237.0,81642066.0,81579404.0,89544556.0,85529379.0,86185021.0,90129295.0,0,0.024375,0.00125,0.02375,0.025625,0.85,0.025625,0.02375,0.00125,0.00125,0.108541666667,0.0688342881944,229.5,102.0,0.00985823692358,0.00926076801912
3,12631065.0,12630798.0,12630081.0,12630642.0,12628725.0,12628999.0,12628105.0,12628905.0,12596113.0,12629233.0,12631047.0,12631487.0,12599258.0,12543658.0,12522488.0,12543808.0,19032227.0,13684212.0,13123130.0,13721411.0,19339761.0,12728865.0,12036217.0,12749044.0,14408241.0,13999897.0,14406706.0,14045980.0,14492478.0,12785728.0,11417812.0,12928419.0,14283860.0,14122596.0,14411512.0,14164348.0,14384530.0,12414274.0,11836190.0,12524351.0,136653.0,136658.0,136659.0,136656.0,136639.0,136639.0,136635.0,136639.0,136603.0,136869.0,136931.0,136875.0,136614.0,136298.0,136202.0,136302.0,144345.0,139986.0,139760.0,139981.0,144941.0,133875.0,133217.0,133832.0,138393.0,140723.0,145400.0,140440.0,138560.0,133120.0,127378.0,133059.0,138294.0,141996.0,144368.0,141694.0,138508.0,131808.0,128382.0,131643.0,72951506.0,67066736.0,67202476.0,67193868.0,73444752.0,63101524.0,60440812.0,63374527.0,1.57079632679,0.025625,0.02375,0.025,0.025625,0.775,0.025,0.025625,0.025,0.02375,0.108263888889,0.0555676022377,178.5,127.5,0.00627342349682,0.00597468904459
3,20333842.0,20331466.0,20328789.0,20328945.0,20330633.0,20330743.0,20333052.0,20335032.0,20331604.0,20306405.0,20279970.0,20267887.0,20268760.0,20267960.0,20279117.0,20307985.0,31065985.0,21762675.0,20271464.0,20407302.0,23119638.0,20416787.0,20288859.0,21779731.0,24789492.0,22497653.0,20691217.0,20465330.0,20301946.0,20493116.0,20551361.0,22481212.0,24766552.0,22113184.0,20993639.0,20395599.0,20172475.0,20417927.0,20817728.0,22139788.0,174328.0,174316.0,174305.0,174311.0,174321.0,174321.0,174328.0,174334.0,174316.0,174301.0,174316.0,174323.0,174328.0,174310.0,174301.0,174301.0,191227.0,174467.0,174260.0,174260.0,175904.0,174247.0,174303.0,174633.0,178818.0,174991.0,174185.0,174212.0,174412.0,174076.0,174315.0,175210.0,178580.0,174714.0,174141.0,174253.0,174461.0,174073.0,174268.0,174942.0,121287475.0,107011383.0,102565079.0,101865063.0,104193452.0,101926533.0,102270117.0,107043748.0,0,0.00125,0.00625,0.00125,0.0025,0.00125,0.9475,0.001875,0.025,0.001875,0.109861111111,0.0877570119599,229.5,178.5,0.0107815979577,0.0079571995003
3,16122813.0,16124704.0,16123066.0,16124271.0,16123180.0,16124855.0,16123989.0,16123308.0,16076943.0,16079964.0,16091788.0,16105987.0,16108828.0,16083877.0,16063766.0,16066891.0,22455514.0,16600782.0,16175657.0,17454347.0,25478159.0,17075204.0,16025521.0,16445599.0,16944875.0,16824170.0,16548418.0,18372356.0,18793204.0,17763018.0,16491245.0,16579193.0,16780071.0,16673186.0,16965759.0,18072752.0,18634388.0,17630445.0,16704805.0,16443428.0,154053.0,154058.0,154048.0,154053.0,154050.0,154061.0,154059.0,154056.0,154087.0,154090.0,154120.0,154091.0,154066.0,154055.0,154076.0,154097.0,159218.0,154194.0,154217.0,154427.0,166737.0,153932.0,153975.0,153875.0,154057.0,154576.0,153756.0,155480.0,156440.0,153812.0,154475.0,153321.0,153929.0,154444.0,153985.0,155092.0,156196.0,153947.0,154315.0,153426.0,88380216.0,82302806.0,81904688.0,86129713.0,95137759.0,84677399.0,81409326.0,81658419.0,1.57079632679,0.025,0.025,0.025,0.025,0.775,0.025,0.025,0.025,0.025,0.108333333333,0.0555555555556,25.5,127.5,0.00844603769486,0.00494269730053
3,14369992.0,14368787.0,14368028.0,14370267.0,14370883.0,14370568.0,14371450.0,14370730.0,14339002.0,14293029.0,14260460.0,14273225.0,14310938.0,14338458.0,14344765.0,14353905.0,24280783.0,15184924.0,14201738.0,14615034.0,19380031.0,15322713.0,14593798.0,16381502.0,17047147.0,15176867.0,14922748.0,14812351.0,15454163.0,15728032.0,15808501.0,18416197.0,16858078.0,15056160.0,14998205.0,14879943.0,15253651.0,15352750.0,16674558.0,18043727.0,144104.0,144107.0,144108.0,144119.0,144111.0,144104.0,144100.0,144100.0,144048.0,144205.0,144264.0,144255.0,144122.0,143974.0,143877.0,143899.0,154499.0,145838.0,145830.0,146154.0,148691.0,142647.0,142200.0,142834.0,145845.0,144779.0,149754.0,147487.0,144877.0,141562.0,139757.0,144717.0,145538.0,145408.0,149025.0,148461.0,144819.0,140198.0,141520.0,143735.0,86895002.0,74079767.0,72751179.0,72950820.0,78769666.0,75112521.0,75793072.0,81566061.0,0,0.024375,0.00125,0.02375,0.025,0.85125,0.02375,0.00125,0.02375,0.00125,0.108402777778,0.0690869020062,229.5,127.5,0.0113519091847,0.00893487588941
3,13211984.0,13213241.0,13211931.0,13210531.0,13210435.0,13209438.0,13209239.0,13210949.0,13188185.0,13192468.0,13164568.0,13156272.0,13137693.0,13107649.0,13102836.0,13138897.0,21696092.0,15426649.0,13314591.0,13980135.0,17755875.0,13464603.0,13058855.0,14392195.0,16632732.0,17502153.0,14011893.0,14284657.0,14633281.0,13645860.0,13755855.0,14235175.0,16531163.0,17082238.0,14735001.0,13975162.0,14465387.0,13732779.0,13829436.0,14090867.0,138444.0,138439.0,138431.0,138427.0,138437.0,138442.0,138447.0,138451.0,138399.0,138256.0,138172.0,138250.0,138401.0,138507.0,138536.0,138499.0,146334.0,138085.0,136637.0,137223.0,142395.0,140305.0,139907.0,140287.0,141274.0,141027.0,132787.0,136307.0,139849.0,141456.0,143663.0,138649.0,141053.0,139926.0,133993.0,135148.0,139719.0,142387.0,143016.0,139311.0,81260156.0,76416749.0,68437984.0,68606757.0,73202671.0,67160329.0,66956221.0,69068083.0,0,0.025625,0.02375,0.00125,0.025,0.824375,0.024375,0.025,0.00125,0.02375,0.108263888889,0.0641929494599,51.0,229.5,0.00953234479387,0.0078485687904
3,19252123.0,19252383.0,19252257.0,19252468.0,19252870.0,19255441.0,19254323.0,19254490.0,19185366.0,19187365.0,19196826.0,19226285.0,19241863.0,19215368.0,19185661.0,19181049.0,24628456.0,19747452.0,19236978.0,21110154.0,30776555.0,20624269.0,19277153.0,19609777.0,20124373.0,20240570.0,20025782.0,22501636.0,23086971.0,21361832.0,20054059.0,19477577.0,19947952.0,19979573.0,20527613.0,22193576.0,22886448.0,21152900.0,20312095.0,19428255.0,169785.0,169779.0,169775.0,169776.0,169778.0,169797.0,169799.0,169800.0,169806.0,169681.0,169622.0,169661.0,169779.0,169906.0,169953.0,169929.0,175680.0,168760.0,168376.0,168858.0,188039.0,171171.0,171117.0,171201.0,170549.0,169530.0,166374.0,169378.0,173567.0,171962.0,173405.0,170595.0,170396.0,168959.0,167001.0,168468.0,173250.0,172392.0,173211.0,170901.0,103138270.0,98407343.0,98239456.0,104284119.0,115244707.0,101609810.0,98083291.0,96951148.0,1.57079632679,0.025,0.025,0.025,0.025,0.775,0.025,0.025,0.025,0.025,0.108333333333,0.0555555555556,229.5,25.5,0.0106458095704,0.00668078865895
